{
    "status": "success",
    "data": {
        "results": [
            {
                "itemId": "236295",
                "type": "interactive",
                "cheadline": "中美紧张令澳大利亚稀土矿商一跃成为“摇滚明星”",
                "cbody": "澳大利亚时间凌晨3点，阿特•马隆(Art Malone)接到电话，被告知他的公司Graphinex将获得一笔13亿澳元（合8.6亿美元）的贷款，作为美国主导的一项开发替代中国稀土和关键矿产的供应链倡议的一部分。\n\n“听到这个数字时我从床上掉了下来。”马隆感叹石墨烯公司命运转变之快。他说，在本周的一个矿业会议上",
                "cauthor": "尼克•法尔兹",
                "tag": "稀土,澳大利亚政府,亚太公司,新兴市场,亚洲东部,全球,自然资源,深度报道,双语阅读,interactive_search,FTArticle,高端专享,NoCopyrightCover",
                "pubdate": "2025-10-24",
                "update": "2025-10-24",
                "publish": "2025-10-24",
                "cshortleadbody": "美澳关键矿产协议令一批此前默默无闻的澳大利亚矿业公司估值飙升。"
            },
            {
                "itemId": "236313",
                "type": "interactive",
                "cheadline": "美国“健康产业”嗅到走向主流的机会",
                "cbody": "自唐纳德•特朗普(Donald <span class=\"yx_hl\">Trump</span>)上台以来，美国卫生政策被一群以非正统科学观点著称的人接管。卫生专家称，迅速壮大的健康与长寿产业已在布局以从中获利。\n\n包括卫生部长小罗伯特•F•肯尼迪(Robert F.",
                "cauthor": "迈克尔•皮尔，帕特里克•坦普尔-韦斯特",
                "tag": "医疗健康,特朗普,双语阅读,interactive_search,FTArticle,商业快报,会员专享",
                "pubdate": "2025-10-24",
                "update": "2025-10-24",
                "publish": "2025-10-24",
                "cshortleadbody": "特朗普政府在缺乏证据的情况下对某些既有药物的安全性发起攻击，这为替代疗法创造了潜在机会。补充剂制造商正准备利用这一点从中获利。"
            },
            {
                "itemId": "236298",
                "type": "interactive",
                "cheadline": "特朗普称已终止与加拿大的贸易谈判",
                "cbody": "美国总统唐纳德•特朗普(Donald <span class=\"yx_hl\">Trump</span>)表示，出于对安大略省推出的反关税广告的愤怒，他已终止与加拿大的贸易谈判，引发与美国北部邻国的新一轮商业危机。",
                "cauthor": "詹姆斯•波利提，伊利亚•格里德内夫",
                "tag": "特朗普关税,美国经济,加拿大,北美,双语阅读,interactive_search,FTArticle,会员专享,",
                "pubdate": "2025-10-24",
                "update": "2025-10-24",
                "publish": "2025-10-24",
                "cshortleadbody": "加拿大安大略省推出的反关税广告激怒了特朗普，引发新一轮商业危机。特朗普此举可能导致与卡尼的关系破裂。"
            },
            {
                "itemId": "236263",
                "type": "interactive",
                "cheadline": "受供应商工厂起火影响，福特下调业绩指引",
                "cbody": "福特(Ford)警告称，纽约一家铝供应商工厂发生火灾，将给公司造成高达20亿美元的利润损失，这导致其下调了年度业绩预期。\n\n9月16日，诺维利斯(Novelis)运营的工厂发生火灾，导致广泛用于美国汽车行业的铝板停产，用户包括福特汽车和斯泰兰蒂斯(Stellantis)。\n\n福特周四表示，预计全年调整后营业利润为",
                "cauthor": "稻垣加奈",
                "tag": "福特汽车,美国公司,公司盈利和业绩,全球,双语阅读,interactive_search,FTArticle,商业快报,会员专享,",
                "pubdate": "2025-10-24",
                "update": "2025-10-24",
                "publish": "2025-10-24",
                "cshortleadbody": "这家汽车制造商将提高其他工厂的卡车产量，以弥补纽约火灾造成的减产。"
            },
            {
                "itemId": "236257",
                "type": "interactive",
                "cheadline": "欧盟未能就利用俄冻结资产为乌克兰提供贷款的计划达成一致",
                "cbody": "由于比利时的反对，欧盟领导人未能支持利用被冻结的俄罗斯国家资产向基辅提供一笔1400亿欧元贷款，令乌克兰在明年初获得资金以抵御俄罗斯侵略的希望破灭。\n\n欧盟领导人周四在布鲁塞尔召开会议讨论利用约1900亿欧元被冻结的俄罗斯主权资产所产生的收益，为基辅提供一笔“赔偿贷款”。眼下，结束俄乌战争的努力受挫，",
                "cauthor": "劳拉•杜波依斯，芭芭拉•莫昂，艾丽斯•汉考克，保拉•塔玛，安迪•邦兹",
                "tag": "乌克兰战争,安东尼奥•科斯塔,欧洲理事会,欧盟委员会,Euroclear清算公司,巴尔特•德韦弗,全球,双语阅读,interactive_search,FTArticle,商业快报,会员专享,",
                "pubdate": "2025-10-24",
                "update": "2025-10-24",
                "publish": "2025-10-24",
                "cshortleadbody": "由于比利时的反对，欧盟领导人无法支持利用被冻结的俄罗斯国家资产向基辅提供价值1400亿欧元的贷款，令乌克兰在明年初获得资金的期待破灭。\n"
            },
            {
                "itemId": "236261",
                "type": "interactive",
                "cheadline": "英特尔因营收改善股价大涨",
                "cbody": "英特尔(Intel)股价上涨，这家陷入困境的芯片制造商公布好于预期的营收，让此前因获得特朗普(<span class=\"yx_hl\">Trump</span>)政府、英伟达(Nvidia)以及日本软银(SoftBank)集团的大笔投资而积累的势头进一步增强。",
                "cauthor": "Michael Acton",
                "tag": "英特尔,美国公司,半导体,公司盈利和业绩,全球,双语阅读,interactive_search,FTArticle,商业快报,会员专享,",
                "pubdate": "2025-10-24",
                "update": "2025-10-24",
                "publish": "2025-10-24",
                "cshortleadbody": "来自英伟达、软银集团和特朗普政府的投资巩固了这家芯片制造商的财务状况。"
            },
            {
                "itemId": "236240",
                "type": "interactive",
                "cheadline": "特朗普赦免币安创始人赵长鹏",
                "cbody": "5月，孙宇晨与特朗普迷因币($<span class=\"yx_hl\">Trump</span>)的另外24名最大持有人在弗吉尼亚的特朗普国家高尔夫俱乐部(<span class=\"yx_hl\">Trump</span> National Golf Club)与总统共进晚宴。\n\n据英国《金融时报》本月报道，特朗普旗下公司在过去一年通过加密业务获得了逾10亿美元的税前利润。",
                "cauthor": "乔治•斯蒂尔，劳伦•费多尔",
                "tag": "加密货币,2024年美国总统大选,美国政治与政策,卡罗琳•莱维特,白领犯罪,唐纳德•特朗普,币安,法律,2024年美国选举,美国选举,全球,数字货币,双语阅读,interactive_search,FTArticle,商业快报,会员专享,",
                "pubdate": "2025-10-24",
                "update": "2025-10-24",
                "publish": "2025-10-24",
                "cshortleadbody": "被美国总统宽恕的加密行业高管名单在持续扩大。"
            },
            {
                "itemId": "236258",
                "type": "interactive",
                "cheadline": "特朗普取消向旧金山部署联邦部队计划",
                "cbody": "唐纳德•特朗普(Donald <span class=\"yx_hl\">Trump</span>)周四表示，他已在英伟达(Nvidia)首席执行官黄仁勋(Jensen Huang)和Salesforce创始人马克•贝尼奥夫(Marc Benioff)的劝阻下，取消了向旧金山部署联邦特工的计划。",
                "cauthor": "汉娜•墨菲，劳伦•费多尔",
                "tag": "美国政治与政策,美国公司,黄仁勋,美国经济,唐纳德•特朗普,马克•贝尼奥夫,全球,硅谷,美国西部,美国北部,北美,旧金山湾区,加利福尼亚,双语阅读,interactive_search,FTArticle,会员专享,",
                "pubdate": "2025-10-24",
                "update": "2025-10-24",
                "publish": "2025-10-24",
                "cshortleadbody": "美国总统称，在接到黄仁勋、马克•贝尼奥夫等硅谷巨头的来电，并与民主党籍市长丹尼尔•卢里交谈后，他取消了“向旧金山增援”的计划。\n\n\n"
            },
            {
                "itemId": "235340",
                "type": "interactive",
                "cheadline": "最新版本《生物安全法案》未将药明系公司纳入其中",
                "cbody": "本周参议院通过了新版法案后，“生物安全法案”(Biosecure Act)在国会又迎来一次机遇。但最新版本并未将“药明康德”(WuXi AppTec)和“药明生物”(WuXi Biologics)这两家美国制药商供应链中的关键企业作为打击目标。\n\n参议院于周四投票决定将“生物安全法案",
                "cauthor": "",
                "tag": "Endpoints News,双语阅读,interactive_search,会员专享,FTArticle,华大基因,比尔•哈格蒂,生物安全法案,加里•彼得斯,吉姆•麦戈文,华大智造,药明康德,药明生物,AITranslation",
                "pubdate": "2025-10-23",
                "update": "2025-10-23",
                "publish": "2025-10-23",
                "cshortleadbody": "本周参议院通过了新版《生物安全法案》，使其在国会再获机遇。但最新版本并未将药明康德和药明生物这两家美国制药商供应链中的关键企业作为打击目标。"
            },
            {
                "itemId": "001107981",
                "type": "news",
                "cheadline": "万斯抨击以色列吞并约旦河西岸法案“非常愚蠢”",
                "cbody": "美国副总统JD•万斯(JD Vance)形容以色列议会投票支持吞并被占领的约旦河西岸是“非常愚蠢的政治噱头”。这表明特朗普政府与本雅明•内塔尼亚胡(Benjamin Netanyahu)的极右翼盟友之间关系紧张。\r\n万斯在结束两天的以色列之行时对记者表示，周三的初步投票——之后还需要进行三次投票才能成为法律",
                "cauthor": "詹姆斯•肖特",
                "tag": "中东政治与社会,美国政治与政策,JD•万斯,本雅明•内塔尼亚胡,唐纳德•特朗普,美国政府,马尔科•鲁比奥",
                "pubdate": "2025-10-23",
                "update": "2025-10-23",
                "publish": "2025-10-23",
                "cshortleadbody": "美国副总统发表此言之际，美国及其阿拉伯盟友与以色列的极右翼政府之间就巴勒斯坦领土的未来正陷入激烈争论。"
            },
            {
                "itemId": "236188",
                "type": "interactive",
                "cheadline": "美国将针对涉嫌贩毒船只的打击行动扩大至太平洋",
                "cbody": "美国总统唐纳德•特朗普(Donald <span class=\"yx_hl\">Trump</span>)还授权中央情报局(CIA)在委内瑞拉境内开展秘密行动，此外，一艘漂浮的特种部队指挥舰被发现在该南美洲国家附近行动。\n\n众议院武装服务委员会的民主党议员杰森•克劳(Jason Crow)周三表示，政府在加勒比地区增兵行动上已花费“接近数亿美元”。",
                "cauthor": "斯特夫•查维斯",
                "tag": "美国军事,美国外交,拉丁美洲,委内瑞拉,哥伦比亚,双语阅读,interactive_search,FTArticle,会员专享,NoCopyrightCover",
                "pubdate": "2025-10-23",
                "update": "2025-10-23",
                "publish": "2025-10-23",
                "cshortleadbody": "美国国防部长称，最新的打击已击毙5名“毒品恐怖分子”。"
            },
            {
                "itemId": "236126",
                "type": "interactive",
                "cheadline": "米莱的成败关头",
                "cbody": "但唐纳德•特朗普(Donald <span class=\"yx_hl\">Trump</span>)治下的美国财政部出手干预，在阿根廷的金融市场抛售美元，并宣布与阿根廷央行达成200亿美元的互换额度，暂时避免了比索立即贬值。\n\n“是特朗普救了他，”阿根廷一位知名首席执行官说。“我们差一点就以很糟糕的结局收场……因为傲慢，因为他的团队软弱。”",
                "cauthor": "西娅拉•纽金特",
                "tag": "FT大视野,阿根廷政治,阿根廷经济,拉丁美洲,哈维尔•米莱,新兴市场,双语阅读,interactive_search,FTArticle,FT商学院,高端专享",
                "pubdate": "2025-10-23",
                "update": "2025-10-23",
                "publish": "2025-10-23",
                "cshortleadbody": "尽管特朗普的支持有助于阿根廷稳定金融市场，但这位阿根廷总统的政治力量在中期选举临近之际受挫。"
            },
            {
                "itemId": "236112",
                "type": "interactive",
                "cheadline": "美国对俄罗斯两家最大的石油公司实施制裁",
                "cbody": "美国将对俄罗斯两家最大的石油公司俄罗斯石油公司(Rosneft)和卢克石油公司(Lukoil)实施制裁，目的是“削弱”弗拉基米尔•普京(Vladimir Putin)的战争资金，并支持唐纳德•特朗普(Donald <span class=\"yx_hl\">Trump</span>)结束乌克兰战争的努力。",
                "cauthor": "艾米•麦金农,安迪•邦兹,艾丽斯•汉考克,杰米•史密斯",
                "tag": "美俄关系,制裁,乌克兰战争,石油,俄罗斯,美国外交,双语阅读,interactive_search,FTArticle,商业快报,会员专享,",
                "pubdate": "2025-10-23",
                "update": "2025-10-23",
                "publish": "2025-10-23",
                "cshortleadbody": "这是特朗普首次试图惩罚“资助克里姆林宫战争机器”的能源公司。"
            },
            {
                "itemId": "236181",
                "type": "interactive",
                "cheadline": "印度最大炼油商信实工业称将“重新校准”俄油采购",
                "cbody": "随着美国总统唐纳德•特朗普(Donald <span class=\"yx_hl\">Trump</span>)加大对新德里施压、要求其停止从莫斯科采购原油，印度最大炼油企业表示，将按照政府指导方针“重新校准”俄油进口。",
                "cauthor": "安德烈斯•斯基帕尼，Krishn Kaushik，Chris Kay",
                "tag": "美印关系,俄印关系,印度政治,信实工业,石油,制裁,双语阅读,interactive_search,FTArticle,商业快报,会员专享,",
                "pubdate": "2025-10-23",
                "update": "2025-10-23",
                "publish": "2025-10-23",
                "cshortleadbody": "华盛顿方面一直在向新德里施压，要求其停止从莫斯科进口原油。"
            },
            {
                "itemId": "236129",
                "type": "interactive",
                "cheadline": "红色按钮的阴影",
                "cbody": "乌克兰战争让核讹诈重登舞台，俄军占领核电站更添风险。历史学者普洛希指出，乌克兰弃核遭侵略的教训正刺激各国核武装。随着军控条约失效、网络威胁加剧，新一轮核扩散浪潮或将开启。",
                "cauthor": "吉迪恩•拉赫曼",
                "tag": "拉赫曼访谈,英语电台,interactive_search,Podcast",
                "pubdate": "2025-10-23",
                "update": "2025-10-23",
                "publish": "2025-10-23",
                "cshortleadbody": "乌克兰战争让核讹诈重登舞台，俄军占领核电站更添风险。历史学者普洛希指出，乌克兰弃核遭侵略的教训正刺激各国核武装。随着军控条约失效、网络威胁加剧，新一轮核扩散浪潮或将开启。"
            },
            {
                "itemId": "236125",
                "type": "interactive",
                "cheadline": "保时捷在新任CEO执掌下重回油车路线",
                "cbody": "在美国，总统唐纳德•特朗普(Donald <span class=\"yx_hl\">Trump</span>)加征的新关税可预见地将适用于每一台售出的车辆。与竞争对手不同，保时捷在当地没有工厂，所有车辆均从欧洲进口。\n\n这场危机的影响已经在保时捷的工厂中显现。",
                "cauthor": "塞巴斯蒂安•阿什,稻垣加奈",
                "tag": "保时捷,电动汽车,双语阅读,interactive_search,FTArticle,FT商学院,高端专享",
                "pubdate": "2025-10-23",
                "update": "2025-10-23",
                "publish": "2025-10-23",
                "cshortleadbody": "在中国市场走弱、美国加征关税和电动汽车销量不及预期的影响下，这家豪车制造商的战略来了个大转弯。"
            },
            {
                "itemId": "236064",
                "type": "interactive",
                "cheadline": "国际法院：以色列必须允许联合国在加沙地带提供援助",
                "cbody": "这一意见提出之际，美国副总统JD•万斯(JD Vance)在耶路撒冷会见以色列总理本雅明•内塔尼亚胡(Benjamin Netanyahu)；此行是美国政府努力的一部分，旨在防止唐纳德•特朗普(Donald <span class=\"yx_hl\">Trump</span>)斡旋达成、仅两周的脆弱停火在以色列与哈马斯之间",
                "cauthor": "詹姆斯•肖特",
                "tag": "国际法院,联合国,以色列,巴勒斯坦,加沙,中东,巴以冲突,以色列-哈马斯冲突,双语阅读,interactive_search,FTArticle,会员专享,",
                "pubdate": "2025-10-23",
                "update": "2025-10-23",
                "publish": "2025-10-23",
                "cshortleadbody": "联合国的最高法院就近东巴勒斯坦难民救济和工程处在加沙地带开展工作的事实上的禁令发出咨询意见。"
            },
            {
                "itemId": "236132",
                "type": "interactive",
                "cheadline": "寰球商情速递：2025年10月23日",
                "cbody": "Plus, the <span class=\"yx_hl\">Trump</span> administration has been quietly suppressing government climate change data.",
                "cauthor": "",
                "tag": "英语电台,interactive_search,英语电台,interactive_search,英语电台,寰球商情速递,interactive_search,Podcast",
                "pubdate": "2025-10-23",
                "update": "2025-10-23",
                "publish": "2025-10-23",
                "cshortleadbody": "特斯拉上季度利润不及预期，股价出现下跌；红杉资本高管因同事争议言论离职，引发外界关于言论自由的讨论；英国9月通胀意外持平，为未来降息提供空间；特朗普政府被曝审查气候数据，舆论关注其潜在影响。"
            },
            {
                "itemId": "236083",
                "type": "interactive",
                "cheadline": "特朗普为航运化石燃料带来的胜利",
                "cbody": "自唐纳德•特朗普(Donald <span class=\"yx_hl\">Trump</span>)于1月上任以来，他一直不遗余力地阻挠任何削减温室气体排放的举措。",
                "cauthor": "社评",
                "tag": "航运,气候变化,唐纳德•特朗普,全球,FT观点,双语阅读,interactive_search,FTArticle,FT商学院,会员专享,",
                "pubdate": "2025-10-23",
                "update": "2025-10-23",
                "publish": "2025-10-23",
                "cshortleadbody": "美国施压致使一项限制海运碳排放的具有里程碑意义的协议流产。"
            },
            {
                "itemId": "236089",
                "type": "interactive",
                "cheadline": "特斯拉季度利润下滑逾四分之一",
                "cbody": "特斯拉(Tesla)表示，其季度利润下滑逾四分之一，原因在于排放额度交易收入的消失以及向机器人与人工智能转型所产生的成本侵蚀了其利润率。\n\n根据周三提交的文件，埃隆•马斯克(Elon Musk)的汽车制造商报告称，其第三季度经调整净利润下降29%，至18亿美元，低于市场预期的19亿美元。\n\n营收同比增长",
                "cauthor": "斯蒂芬•莫里斯",
                "tag": "特斯拉,美国公司,埃隆•马斯克,电动汽车,公司盈利和业绩,全球,双语阅读,interactive_search,FTArticle,商业快报,会员专享",
                "pubdate": "2025-10-23",
                "update": "2025-10-23",
                "publish": "2025-10-23",
                "cshortleadbody": "排放额度收入下滑，加之在人工智能与机器人领域的大手笔投入，冲击了埃隆•马斯克的汽车公司。"
            }
        ],
        "totalResults": 14784,
        "totalPages": 740,
        "currentPage": 1
    }
}